<?xml version="1.0" encoding="UTF-8"?>
<svg width="70px" height="74px" viewBox="0 0 70 74" version="1.1" xmlns="http://www.w3.org/2000/svg" xmlns:xlink="http://www.w3.org/1999/xlink">
    <!-- Generator: Sketch 47.1 (45422) - http://www.bohemiancoding.com/sketch -->
    <title>ic_info_outline</title>
    <desc>Created with Sketch.</desc>
    <defs></defs>
    <g id="UI---Batch-1" stroke="none" stroke-width="1" fill="none" fill-rule="evenodd">
        <g id="Template-1_Homepage_XXL" transform="translate(-1573.000000, -1083.000000)">
            <g id="Group-12" transform="translate(0.000000, 1027.000000)">
                <g id="card-copy-5" transform="translate(1300.000000, 0.000000)">
                    <g id="ic_info_outline" transform="translate(273.000000, 56.000000)">
                        <path d="M57.987886,59.1773276 C52.3788226,67.6815554 42.6078728,73.3154555 31.5,73.3154555 C14.112,73.3154555 0,59.5101315 0,42.5 C0,37.2525468 1.34298258,32.3100823 3.71082719,27.9838137 C3.14171906,30.3971858 2.84057824,32.913639 2.84057824,35.5 C2.84057824,53.5280008 17.4719992,68.1594218 35.5,68.1594218 C44.2116845,68.1594218 52.1302269,64.7428099 57.987886,59.1773276 Z" id="Icon" fill="#220A3C"></path>
                        <path d="M38.5,0 C21.112,0 7,14.112 7,31.5 C7,48.888 21.112,63 38.5,63 C55.888,63 70,48.888 70,31.5 C70,14.112 55.888,0 38.5,0 L38.5,0 Z" id="Icon-Copy" fill="#FFFFFF"></path>
                        <path d="M28.9830556,29.8751389 C31.3630556,34.5525 35.1975,38.3704167 39.8748611,40.7669444 L43.5109722,37.1308333 C43.9572222,36.6845833 44.6183333,36.5358333 45.1968056,36.7341667 C47.0479167,37.3456944 49.0477778,37.67625 51.0972222,37.67625 C52.00625,37.67625 52.75,38.42 52.75,39.3290278 L52.75,45.0972222 C52.75,46.00625 52.00625,46.75 51.0972222,46.75 C35.5776389,46.75 23,34.1723611 23,18.6527778 C23,17.74375 23.74375,17 24.6527778,17 L30.4375,17 C31.3465278,17 32.0902778,17.74375 32.0902778,18.6527778 C32.0902778,20.71875 32.4208333,22.7020833 33.0323611,24.5531944 C33.2141667,25.1316667 33.0819444,25.77625 32.6191667,26.2390278 L28.9830556,29.8751389 L28.9830556,29.8751389 Z" id="Icon" fill="#FC854F"></path>
                    </g>
                </g>
            </g>
        </g>
    </g>
</svg>